module github.com/template-web-app

go 1.20

require (
	github.com/cenkalti/backoff/v4 v4.2.0
	github.com/gin-contrib/cors v1.4.0
	github.com/gin-gonic/gin v1.9.0
	github.com/rs/xid v1.5.0
	github.com/sethvargo/go-envconfig v0.9.0
	github.com/stretchr/testify v1.8.2
	go.uber.org/zap v1.24.0
	google.golang.org/grpc v1.55.0
	google.golang.org/protobuf v1.30.0
	gorm.io/driver/mysql v1.4.7
	gorm.io/gorm v1.25.0
	moul.io/zapgorm2 v1.3.0
)

require (
	github.com/bytedance/sonic v1.8.5 // indirect
	github.com/chenzhuoyu/base64x v0.0.0-20221115062448-fe3a3abad311 // indirect
	github.com/davecgh/go-spew v1.1.1 // indirect
	github.com/gin-contrib/sse v0.1.0 // indirect
	github.com/go-playground/locales v0.14.1 // indirect
	github.com/go-playground/universal-translator v0.18.1 // indirect
	github.com/go-playground/validator/v10 v10.11.2 // indirect
	github.com/go-sql-driver/mysql v1.7.0 // indirect
	github.com/goccy/go-json v0.10.1 // indirect
	github.com/golang/protobuf v1.5.3 // indirect
	github.com/jinzhu/inflection v1.0.0 // indirect
	github.com/jinzhu/now v1.1.5 // indirect
	github.com/json-iterator/go v1.1.12 // indirect
	github.com/klauspost/cpuid/v2 v2.2.4 // indirect
	github.com/leodido/go-urn v1.2.2 // indirect
	github.com/mattn/go-isatty v0.0.17 // indirect
	github.com/modern-go/concurrent v0.0.0-20180306012644-bacd9c7ef1dd // indirect
	github.com/modern-go/reflect2 v1.0.2 // indirect
	github.com/pelletier/go-toml/v2 v2.0.7 // indirect
	github.com/pmezard/go-difflib v1.0.0 // indirect
	github.com/twitchyliquid64/golang-asm v0.15.1 // indirect
	github.com/ugorji/go/codec v1.2.11 // indirect
	go.uber.org/atomic v1.10.0 // indirect
	go.uber.org/multierr v1.11.0 // indirect
	golang.org/x/arch v0.3.0 // indirect
	golang.org/x/crypto v0.7.0 // indirect
	golang.org/x/net v0.8.0 // indirect
	golang.org/x/sys v0.6.0 // indirect
	golang.org/x/text v0.8.0 // indirect
	google.golang.org/genproto v0.0.0-20230306155012-7f2fa6fef1f4 // indirect
	gopkg.in/yaml.v3 v3.0.1 // indirect
)
